0 0.510000 0.515000 0.155000 0.196667
0 0.602500 0.227500 0.132500 0.231667
0 0.488125 0.333333 0.113750 0.116667
0 0.476875 0.206667 0.118750 0.140000
0 0.135000 0.295000 0.155000 0.320000
0 0.238750 0.276667 0.065000 0.136667
0 0.298125 0.160833 0.081250 0.161667
0 0.330625 0.326667 0.088750 0.116667
0 0.357500 0.508333 0.100000 0.096667
0 0.755000 0.276667 0.095000 0.196667
0 0.828125 0.423333 0.141250 0.233333
0 0.781875 0.577500 0.088750 0.115000
0 0.673750 0.808333 0.120000 0.223333
0 0.873750 0.186667 0.097500 0.236667
0 0.824375 0.080833 0.083750 0.155000
0 0.696250 0.106667 0.122500 0.210000
0 0.873750 0.780000 0.075000 0.160000
0 0.783125 0.800000 0.088750 0.203333
0 0.946250 0.636667 0.107500 0.160000
0 0.383750 0.110833 0.060000 0.085000
