0 0.515000 0.316667 0.125000 0.160000
0 0.483750 0.501667 0.087500 0.173333
0 0.530000 0.670000 0.097500 0.180000
0 0.323750 0.695000 0.115000 0.190000
0 0.631875 0.460000 0.093750 0.150000
0 0.649375 0.614167 0.083750 0.128333
0 0.751875 0.365000 0.138750 0.216667
0 0.335000 0.125000 0.095000 0.143333
0 0.232500 0.128333 0.087500 0.150000
0 0.540625 0.144167 0.086250 0.141667
0 0.922500 0.263333 0.140000 0.273333
0 0.837500 0.750833 0.060000 0.111667
0 0.819375 0.528333 0.146250 0.233333
0 0.156875 0.552500 0.093750 0.188333
