0 0.575000 0.776667 0.157500 0.280000
0 0.392500 0.471667 0.075000 0.163333
0 0.405000 0.705000 0.092500 0.130000
0 0.263125 0.645833 0.096250 0.105000
0 0.309375 0.742500 0.091250 0.125000
0 0.285625 0.096667 0.118750 0.116667
0 0.413125 0.143333 0.093750 0.140000
0 0.510000 0.240000 0.097500 0.193333
0 0.268125 0.276667 0.088750 0.126667
0 0.334375 0.360000 0.091250 0.126667
0 0.146875 0.379167 0.071250 0.135000
0 0.595625 0.280000 0.066250 0.136667
0 0.448750 0.430000 0.060000 0.100000
0 0.528125 0.573333 0.086250 0.130000
0 0.823750 0.696667 0.102500 0.173333
0 0.779375 0.525000 0.116250 0.203333
0 0.305625 0.480000 0.088750 0.100000
0 0.181250 0.630833 0.077500 0.118333
0 0.675625 0.355000 0.186250 0.353333
0 0.565000 0.101667 0.065000 0.093333
0 0.630000 0.134167 0.062500 0.081667
0 0.506250 0.449167 0.057500 0.091667
0 0.554375 0.397500 0.053750 0.085000
