0 0.496250 0.274167 0.097500 0.138333
0 0.371250 0.193333 0.147500 0.223333
0 0.630625 0.155833 0.136250 0.221667
0 0.675000 0.381667 0.110000 0.220000
0 0.891250 0.393333 0.147500 0.280000
0 0.738750 0.619167 0.117500 0.168333
0 0.653750 0.742500 0.102500 0.155000
0 0.625625 0.586667 0.073750 0.126667
0 0.548125 0.663333 0.098750 0.153333
0 0.856250 0.610000 0.070000 0.106667
0 0.768750 0.224167 0.077500 0.098333
0 0.578125 0.363333 0.061250 0.096667
0 0.366875 0.408333 0.103750 0.133333
0 0.206875 0.248333 0.081250 0.096667
0 0.254375 0.113333 0.093750 0.123333
0 0.966250 0.219167 0.067500 0.115000
0 0.311250 0.702500 0.075000 0.151667
0 0.278750 0.452500 0.072500 0.098333
0 0.083750 0.464167 0.045000 0.105000
0 0.132500 0.258333 0.125000 0.283333
