0 0.558750 0.316667 0.115000 0.273333
0 0.830000 0.598333 0.155000 0.273333
0 0.435625 0.481667 0.098750 0.160000
0 0.526875 0.547500 0.081250 0.105000
0 0.497500 0.651667 0.075000 0.103333
0 0.695000 0.640833 0.090000 0.131667
0 0.711250 0.379167 0.060000 0.128333
0 0.294375 0.425000 0.173750 0.293333
0 0.426875 0.190833 0.133750 0.158333
0 0.531875 0.075833 0.103750 0.141667
0 0.672500 0.106667 0.122500 0.150000
0 0.786250 0.090833 0.095000 0.135000
0 0.946875 0.423333 0.106250 0.146667
0 0.961875 0.551667 0.076250 0.110000
0 0.146250 0.490833 0.082500 0.121667
0 0.098750 0.470833 0.077500 0.238333
0 0.293750 0.082500 0.070000 0.101667
0 0.366250 0.075000 0.062500 0.103333
0 0.860000 0.239167 0.062500 0.101667
0 0.194375 0.330833 0.118750 0.201667
0 0.251250 0.085833 0.067500 0.088333
